<?xml version="1.0" encoding="UTF-8" standalone="no"?>
<!-- Created with Inkscape (http://www.inkscape.org/) -->

<svg
   xmlns:dc="http://purl.org/dc/elements/1.1/"
   xmlns:cc="http://creativecommons.org/ns#"
   xmlns:rdf="http://www.w3.org/1999/02/22-rdf-syntax-ns#"
   xmlns:svg="http://www.w3.org/2000/svg"
   xmlns="http://www.w3.org/2000/svg"
   xmlns:sodipodi="http://sodipodi.sourceforge.net/DTD/sodipodi-0.dtd"
   xmlns:inkscape="http://www.inkscape.org/namespaces/inkscape"
   width="744.09448"
   height="1052.3622"
   id="svg2"
   version="1.1"
   inkscape:version="0.91pre2 r13516"
   viewBox="0 0 744.09448 1052.3622"
   sodipodi:docname="logo-with-text.svg"
   inkscape:export-filename="C:\Users\Alucard\Desktop\[-Skole-]\[-7.Semester-]\I7BAC\Repositories\webapp\app\logo-with-text-lg.png"
   inkscape:export-xdpi="607.52332"
   inkscape:export-ydpi="607.52332">
  <title
     id="title3801">logo-with-text</title>
  <defs
     id="defs4">
    <linearGradient
       id="linearGradient3361"
       spreadMethod="pad"
       gradientTransform="matrix(65.632927,17.586288,17.586288,-65.632927,186.51297,421.29318)"
       gradientUnits="userSpaceOnUse"
       y2="0"
       x2="1"
       y1="0"
       x1="0">
      <stop
         id="stop3363"
         offset="0"
         style="stop-opacity:1;stop-color:#1e8d83" />
      <stop
         id="stop3365"
         offset="0.01867693"
         style="stop-opacity:1;stop-color:#1e8d83" />
      <stop
         id="stop3367"
         offset="0.519802"
         style="stop-opacity:1;stop-color:#20aeb1" />
      <stop
         id="stop3369"
         offset="0.53554696"
         style="stop-opacity:1;stop-color:#20aeb1" />
      <stop
         id="stop3371"
         offset="1"
         style="stop-opacity:1;stop-color:#67c4d9" />
    </linearGradient>
    <clipPath
       id="clipPath3379"
       clipPathUnits="userSpaceOnUse">
      <path
         inkscape:connector-curvature="0"
         id="path3381"
         d="m 223.635,454.115 c -6.368,-6.65 -18.171,-30.508 -24.29,-45.771 l 0,0 c -1.631,-4.067 -2.976,-8.223 -4.71,-12.251 l 0,0 c 1.299,1.687 2.576,3.316 4.193,4.725 l 0,0 c 13.094,11.438 32.568,16.369 39.553,32.194 l 0,0 c 1.99,4.506 3.142,9.436 3.299,14.282 l 0,0 c 0.165,4.995 -0.797,9.956 -3.176,14.611 l 0,0 c -0.121,0.182 -0.426,0.275 -0.873,0.275 l 0,0 c -2.356,0 -8.721,-2.557 -13.996,-8.065 m -24.909,-50.851 c 0.59,1.539 1.18,3.079 1.795,4.61 l 0,0 c 6.612,16.491 18.106,39.178 24.03,45.365 l 0,0 c 5.089,5.315 11.048,7.636 13.035,7.672 l 0,0 c 2.037,-4.159 2.987,-8.723 2.826,-13.576 l 0,0 c -0.148,-4.647 -1.251,-9.422 -3.194,-13.811 l 0,0 c -4.304,-9.757 -13.528,-15.209 -23.296,-20.982 l 0,0 c -5.381,-3.18 -10.941,-6.466 -15.692,-10.563 l 0,0 c 0.167,0.43 0.332,0.859 0.496,1.285" />
    </clipPath>
    <linearGradient
       id="linearGradient3391"
       spreadMethod="pad"
       gradientTransform="matrix(58.001133,15.541357,15.541357,-58.001133,187.79063,421.63547)"
       gradientUnits="userSpaceOnUse"
       y2="0"
       x2="1"
       y1="0"
       x1="0">
      <stop
         id="stop3393"
         offset="0"
         style="stop-opacity:0.29999237;stop-color:#ffffff" />
      <stop
         id="stop3395"
         offset="0.03593086"
         style="stop-opacity:0.29999237;stop-color:#ffffff" />
      <stop
         id="stop3397"
         offset="1"
         style="stop-opacity:0.09999237;stop-color:#ffffff" />
    </linearGradient>
    <mask
       id="mask3399"
       height="1"
       width="1"
       y="0"
       x="0"
       maskUnits="userSpaceOnUse">
      <g
         id="g3401">
        <g
           id="g3403">
          <g
             id="g3405">
            <g
               id="g3407">
              <path
                 inkscape:connector-curvature="0"
                 id="path3409"
                 style="fill:url(#linearGradient3391);stroke:none"
                 d="m -32768,32767 65535,0 0,-65535 -65535,0 0,65535 z" />
            </g>
          </g>
        </g>
      </g>
    </mask>
    <linearGradient
       id="linearGradient3415"
       spreadMethod="pad"
       gradientTransform="matrix(58.001133,15.541357,15.541357,-58.001133,187.79063,421.63547)"
       gradientUnits="userSpaceOnUse"
       y2="0"
       x2="1"
       y1="0"
       x1="0">
      <stop
         id="stop3417"
         offset="0"
         style="stop-opacity:1;stop-color:#1e5f64" />
      <stop
         id="stop3419"
         offset="0.03593086"
         style="stop-opacity:1;stop-color:#1e5f64" />
      <stop
         id="stop3421"
         offset="1"
         style="stop-opacity:1;stop-color:#1f9ca5" />
    </linearGradient>
    <linearGradient
       id="linearGradient3437"
       spreadMethod="pad"
       gradientTransform="matrix(101.12952,-32.100765,-32.100765,-101.12952,116.6379,441.97726)"
       gradientUnits="userSpaceOnUse"
       y2="0"
       x2="1"
       y1="0"
       x1="0">
      <stop
         id="stop3439"
         offset="0"
         style="stop-opacity:1;stop-color:#62c5f1" />
      <stop
         id="stop3441"
         offset="0.43124639"
         style="stop-opacity:1;stop-color:#2c95d2" />
      <stop
         id="stop3443"
         offset="0.5"
         style="stop-opacity:1;stop-color:#2c95d2" />
      <stop
         id="stop3445"
         offset="0.74373299"
         style="stop-opacity:1;stop-color:#2c95d2" />
      <stop
         id="stop3447"
         offset="1"
         style="stop-opacity:1;stop-color:#43bff0" />
    </linearGradient>
    <clipPath
       id="clipPath3455"
       clipPathUnits="userSpaceOnUse">
      <path
         inkscape:connector-curvature="0"
         id="path3457"
         d="m 197.842,478.589 c -16.182,-5.662 -20.096,-23.628 -29.008,-36.263 l 0,0 c -8.563,-12.138 -22.877,-17.566 -37.159,-19.204 l 0,0 c -3.495,-0.4 -7.069,-0.637 -10.649,-0.637 l 0,0 c -5.658,0 -11.329,0.589 -16.722,2.047 l 0,0 c -5.936,1.603 -12.524,4.251 -17.707,7.588 l 0,0 c 0,0 0.176,-2.572 1.385,-5.966 l 0,0 c 5.764,-15.106 17.386,-27.172 28.172,-38.842 l 0,0 c 3.309,-3.58 6.713,-7.069 10.327,-10.342 l 0,0 c 6.648,-6.019 19.179,-14.925 28.484,-15.264 l 0,0 c 0.344,-0.013 0.687,-0.019 1.027,-0.019 l 0,0 c 14.582,0 23.559,11.476 32.217,23.175 l 0,0 c 2.38,3.214 4.48,6.832 6.092,10.498 l 0,0 c 1.853,4.223 3.382,8.566 5.096,12.843 l 0,0 c 6.119,15.261 17.923,39.119 24.291,45.771 l 0,0 c 5.273,5.508 11.652,8.071 14.011,8.071 l 0,0 c 0.49,0 0.805,-0.11 0.901,-0.328 l 0,0 c -2.495,5.574 -8.354,10.527 -13.862,13.899 l 0,0 c -4.837,2.964 -10.953,4.584 -16.98,4.585 l 0,0 c -3.417,0 -6.804,-0.522 -9.916,-1.612 m -66.024,-56.725 c 11.979,1.374 28.303,5.912 38.051,19.732 l 0,0 c 2.668,3.782 4.916,8.07 7.09,12.218 l 0,0 c 5.322,10.156 10.349,19.747 21.302,23.58 l 0,0 c 2.916,1.021 6.111,1.539 9.497,1.539 l 0,0 c 5.807,-10e-4 11.756,-1.603 16.32,-4.398 l 0,0 c 5.541,-3.393 9.908,-7.443 12.319,-11.369 l 0,0 c -3.208,-0.628 -8.836,-3.316 -13.625,-8.316 l 0,0 c -6.692,-6.991 -18.765,-31.739 -24.551,-46.175 l 0,0 c -0.621,-1.55 -1.217,-3.107 -1.815,-4.665 l 0,0 c -1.029,-2.689 -2.093,-5.469 -3.266,-8.14 l 0,0 c -1.568,-3.568 -3.624,-7.114 -5.949,-10.256 l 0,0 c -9.501,-12.839 -17.834,-22.659 -31.199,-22.659 l 0,0 c -0.324,0 -0.65,0.006 -0.981,0.017 l 0,0 c -9.199,0.335 -21.726,9.549 -27.68,14.938 l 0,0 c -3.184,2.884 -6.44,6.145 -10.246,10.263 l 0,0 -1.663,1.797 c -10.264,11.078 -20.875,22.533 -26.246,36.608 l 0,0 c -0.404,1.133 -0.687,2.175 -0.883,3.043 l 0,0 c 4.535,-2.557 10.101,-4.806 15.68,-6.312 l 0,0 c 5.132,-1.387 10.871,-2.091 17.053,-2.091 l 0,0 c 3.431,0 7.062,0.218 10.792,0.646" />
    </clipPath>
    <linearGradient
       id="linearGradient3467"
       spreadMethod="pad"
       gradientTransform="matrix(130.73439,-39.969517,-39.969517,-130.73439,91.701553,448.81732)"
       gradientUnits="userSpaceOnUse"
       y2="0"
       x2="1"
       y1="0"
       x1="0">
      <stop
         id="stop3469"
         offset="0"
         style="stop-opacity:0;stop-color:#ffffff" />
      <stop
         id="stop3471"
         offset="0.33331741"
         style="stop-opacity:0;stop-color:#ffffff" />
      <stop
         id="stop3473"
         offset="0.529703"
         style="stop-opacity:1;stop-color:#ffffff" />
      <stop
         id="stop3475"
         offset="0.95396708"
         style="stop-opacity:0.50000763;stop-color:#ffffff" />
      <stop
         id="stop3477"
         offset="0.970297"
         style="stop-opacity:0.50000763;stop-color:#ffffff" />
      <stop
         id="stop3479"
         offset="0.99873698"
         style="stop-opacity:1;stop-color:#ffffff" />
      <stop
         id="stop3481"
         offset="1"
         style="stop-opacity:1;stop-color:#ffffff" />
    </linearGradient>
    <mask
       id="mask3483"
       height="1"
       width="1"
       y="0"
       x="0"
       maskUnits="userSpaceOnUse">
      <g
         id="g3485">
        <g
           id="g3487">
          <g
             id="g3489">
            <g
               id="g3491">
              <path
                 inkscape:connector-curvature="0"
                 id="path3493"
                 style="fill:url(#linearGradient3467);stroke:none"
                 d="m -32768,32767 65535,0 0,-65535 -65535,0 0,65535 z" />
            </g>
          </g>
        </g>
      </g>
    </mask>
    <linearGradient
       id="linearGradient3499"
       spreadMethod="pad"
       gradientTransform="matrix(130.73439,-39.969517,-39.969517,-130.73439,91.701553,448.81732)"
       gradientUnits="userSpaceOnUse"
       y2="0"
       x2="1"
       y1="0"
       x1="0">
      <stop
         id="stop3501"
         offset="0"
         style="stop-opacity:1;stop-color:#2a9ad6" />
      <stop
         id="stop3503"
         offset="0.33331741"
         style="stop-opacity:1;stop-color:#2a9ad6" />
      <stop
         id="stop3505"
         offset="0.529703"
         style="stop-opacity:1;stop-color:#2c95d2" />
      <stop
         id="stop3507"
         offset="0.95396708"
         style="stop-opacity:1;stop-color:#7eccf3" />
      <stop
         id="stop3509"
         offset="0.970297"
         style="stop-opacity:1;stop-color:#7eccf3" />
      <stop
         id="stop3511"
         offset="0.99873698"
         style="stop-opacity:1;stop-color:#85d0f5" />
      <stop
         id="stop3513"
         offset="1"
         style="stop-opacity:1;stop-color:#85d0f5" />
    </linearGradient>
    <linearGradient
       id="linearGradient3529"
       spreadMethod="pad"
       gradientTransform="matrix(44.538265,-44.538265,-44.538265,-44.538265,94.395828,452.41028)"
       gradientUnits="userSpaceOnUse"
       y2="0"
       x2="1"
       y1="0"
       x1="0">
      <stop
         id="stop3531"
         offset="0"
         style="stop-opacity:1;stop-color:#67c4d9" />
      <stop
         id="stop3533"
         offset="0.44166933"
         style="stop-opacity:1;stop-color:#20aeb1" />
      <stop
         id="stop3535"
         offset="0.483862"
         style="stop-opacity:1;stop-color:#20aeb1" />
      <stop
         id="stop3537"
         offset="0.86423667"
         style="stop-opacity:1;stop-color:#1fa4a6" />
      <stop
         id="stop3539"
         offset="1"
         style="stop-opacity:1;stop-color:#1fa4a6" />
    </linearGradient>
    <clipPath
       id="clipPath3547"
       clipPathUnits="userSpaceOnUse">
      <path
         inkscape:connector-curvature="0"
         id="path3549"
         d="m 86.512,433.88 c 0,-0.637 0.045,-1.264 0.121,-1.88 l 0,0 c 5.184,-3.337 11.772,-5.985 17.708,-7.589 l 0,0 c 5.393,-1.458 11.07,-2.046 16.731,-2.046 l 0,0 c 3.576,0 7.147,0.235 10.641,0.635 l 0,0 c 5.584,0.642 11.17,1.873 16.42,3.847 l 0,0 c -2.696,-0.842 -5.49,-1.385 -8.256,-1.385 l 0,0 c -1.684,0 -3.36,0.203 -4.996,0.659 l 0,0 c -9.076,2.537 -12.827,11.752 -18.3,18.245 l 0,0 c -0.426,0.506 -0.88,0.978 -1.35,1.426 l 0,0 c -3.045,3.039 -7.249,4.916 -11.888,4.916 l 0,0 c -9.296,0 -16.831,-7.534 -16.831,-16.828 m 18.158,-8.246 c -6.13,1.657 -12.227,4.234 -16.84,7.109 l 0,0 c -0.034,0.39 -0.05,0.771 -0.05,1.137 l 0,0 c 0,8.581 6.982,15.56 15.563,15.56 l 0,0 c 4.151,0 8.055,-1.613 11.013,-4.565 l 0,0 c 0.474,-0.451 0.884,-0.885 1.255,-1.325 l 0,0 c 1.421,-1.684 2.706,-3.534 4.067,-5.492 l 0,0 c 3.815,-5.494 7.761,-11.174 14.863,-13.156 l 0,0 c 0.192,-0.054 0.382,-0.106 0.578,-0.153 l 0,0 c -1.166,-0.188 -2.349,-0.351 -3.551,-0.49 l 0,0 c -3.631,-0.417 -7.164,-0.628 -10.496,-0.628 l 0,0 c -5.964,0 -11.481,0.675 -16.402,2.003" />
    </clipPath>
    <linearGradient
       id="linearGradient3559"
       spreadMethod="pad"
       gradientTransform="matrix(61.620098,0,0,-61.620098,86.512703,436.5361)"
       gradientUnits="userSpaceOnUse"
       y2="0"
       x2="1"
       y1="0"
       x1="0">
      <stop
         id="stop3561"
         offset="0"
         style="stop-opacity:0;stop-color:#ffffff" />
      <stop
         id="stop3563"
         offset="1"
         style="stop-opacity:0.50000763;stop-color:#ffffff" />
    </linearGradient>
    <mask
       id="mask3565"
       height="1"
       width="1"
       y="0"
       x="0"
       maskUnits="userSpaceOnUse">
      <g
         id="g3567">
        <g
           id="g3569">
          <g
             id="g3571">
            <g
               id="g3573">
              <path
                 inkscape:connector-curvature="0"
                 id="path3575"
                 style="fill:url(#linearGradient3559);stroke:none"
                 d="m -32768,32767 65535,0 0,-65535 -65535,0 0,65535 z" />
            </g>
          </g>
        </g>
      </g>
    </mask>
    <linearGradient
       id="linearGradient3581"
       spreadMethod="pad"
       gradientTransform="matrix(61.620098,0,0,-61.620098,86.512703,436.5361)"
       gradientUnits="userSpaceOnUse"
       y2="0"
       x2="1"
       y1="0"
       x1="0">
      <stop
         id="stop3583"
         offset="0"
         style="stop-opacity:1;stop-color:#1f9ca5" />
      <stop
         id="stop3585"
         offset="1"
         style="stop-opacity:1;stop-color:#1e5f64" />
    </linearGradient>
    <clipPath
       id="clipPath3593"
       clipPathUnits="userSpaceOnUse">
      <path
         inkscape:connector-curvature="0"
         id="path3595"
         d="m 0,841.89 595.28,0 L 595.28,0 0,0 0,841.89 Z" />
    </clipPath>
    <clipPath
       id="clipPath3601"
       clipPathUnits="userSpaceOnUse">
      <path
         inkscape:connector-curvature="0"
         id="path3603"
         d="m 194.635,462.18 45.611,0 0,-66.087 -45.611,0 0,66.087 z" />
    </clipPath>
    <clipPath
       id="clipPath3617"
       clipPathUnits="userSpaceOnUse">
      <path
         inkscape:connector-curvature="0"
         id="path3619"
         d="m 86.5127,433.88 61.6203,0 0,-11.516 -61.6203,0 0,11.516 z" />
    </clipPath>
    <clipPath
       id="clipPath3633"
       clipPathUnits="userSpaceOnUse">
      <path
         inkscape:connector-curvature="0"
         id="path3635"
         d="m 86.5967,432.12 45.0793,0 0,-44.808 -45.0793,0 0,44.808 z" />
    </clipPath>
  </defs>
  <sodipodi:namedview
     id="base"
     pagecolor="#ffffff"
     bordercolor="#666666"
     borderopacity="1.0"
     inkscape:pageopacity="0.0"
     inkscape:pageshadow="2"
     inkscape:zoom="1.894057"
     inkscape:cx="-880.35852"
     inkscape:cy="691.58946"
     inkscape:document-units="px"
     inkscape:current-layer="g3345"
     showgrid="false"
     inkscape:window-width="1920"
     inkscape:window-height="1148"
     inkscape:window-x="-8"
     inkscape:window-y="-8"
     inkscape:window-maximized="1" />
  <metadata
     id="metadata7">
    <rdf:RDF>
      <cc:Work
         rdf:about="">
        <dc:format>image/svg+xml</dc:format>
        <dc:type
           rdf:resource="http://purl.org/dc/dcmitype/StillImage" />
        <dc:title>logo-with-text</dc:title>
      </cc:Work>
    </rdf:RDF>
  </metadata>
  <g
     inkscape:label="Layer 1"
     inkscape:groupmode="layer"
     id="layer1">
    <g
       transform="matrix(1.25,0,0,-1.25,-1354.9078,904.2571)"
       inkscape:label="CareStore_Logo"
       id="g3345">
      <g
         id="g3349"
         style="fill:#444443;fill-opacity:1"
         inkscape:export-xdpi="911.28503"
         inkscape:export-ydpi="911.28503">
        <g
           id="g3351"
           style="fill:#444443;fill-opacity:1">
          <g
             id="g3357"
             style="fill:#444443;fill-opacity:1">
            <g
               id="g3359"
               style="fill:#444443;fill-opacity:1">
              <path
                 inkscape:connector-curvature="0"
                 id="path3373"
                 style="fill:#444443;stroke:none;fill-opacity:1"
                 d="m 223.635,454.115 c -6.368,-6.65 -18.171,-30.508 -24.29,-45.771 l 0,0 c -1.631,-4.067 -2.976,-8.223 -4.71,-12.251 l 0,0 c 1.299,1.687 2.576,3.316 4.193,4.725 l 0,0 c 13.094,11.438 32.568,16.369 39.553,32.194 l 0,0 c 1.99,4.506 3.142,9.436 3.299,14.282 l 0,0 c 0.165,4.995 -0.797,9.956 -3.176,14.611 l 0,0 c -0.123,0.182 -0.426,0.274 -0.874,0.274 l 0,0 c -2.355,0.001 -8.72,-2.556 -13.995,-8.064" />
            </g>
          </g>
        </g>
      </g>
      <g
         id="g3375"
         style="fill:#ffffff"
         inkscape:export-xdpi="911.28503"
         inkscape:export-ydpi="911.28503">
        <g
           clip-path="url(#clipPath3379)"
           id="g3377"
           style="fill:#ffffff">
          <g
             id="g3383"
             style="fill:#ffffff">
            <g
               id="g3385"
               style="fill:#ffffff" />
            <g
               mask="url(#mask3399)"
               id="g3411"
               style="fill:#ffffff">
              <g
                 id="g3413"
                 style="fill:#ffffff">
                <path
                   inkscape:connector-curvature="0"
                   id="path3423"
                   style="fill:#ffffff;stroke:none"
                   d="m 223.635,454.115 c -6.368,-6.65 -18.171,-30.508 -24.29,-45.771 l 0,0 c -1.631,-4.067 -2.976,-8.223 -4.71,-12.251 l 0,0 c 1.299,1.687 2.576,3.316 4.193,4.725 l 0,0 c 13.094,11.438 32.568,16.369 39.553,32.194 l 0,0 c 1.99,4.506 3.142,9.436 3.299,14.282 l 0,0 c 0.165,4.995 -0.797,9.956 -3.176,14.611 l 0,0 c -0.121,0.182 -0.426,0.275 -0.873,0.275 l 0,0 c -2.356,0 -8.721,-2.557 -13.996,-8.065 m -24.909,-50.851 c 0.59,1.539 1.18,3.079 1.795,4.61 l 0,0 c 6.612,16.491 18.106,39.178 24.03,45.365 l 0,0 c 5.089,5.315 11.048,7.636 13.035,7.672 l 0,0 c 2.037,-4.159 2.987,-8.723 2.826,-13.576 l 0,0 c -0.148,-4.647 -1.251,-9.422 -3.194,-13.811 l 0,0 c -4.304,-9.757 -13.528,-15.209 -23.296,-20.982 l 0,0 c -5.381,-3.18 -10.941,-6.466 -15.692,-10.563 l 0,0 c 0.167,0.43 0.332,0.859 0.496,1.285" />
              </g>
            </g>
          </g>
        </g>
      </g>
      <g
         id="g3425"
         inkscape:export-xdpi="911.28503"
         inkscape:export-ydpi="911.28503">
        <g
           id="g3427">
          <g
             id="g3433">
            <g
               id="g3435"
               style="fill:#4d4d4d">
              <path
                 inkscape:connector-curvature="0"
                 id="path3449"
                 style="fill:#4d4d4d;stroke:none"
                 d="m 197.842,478.589 c -16.182,-5.662 -20.096,-23.628 -29.008,-36.263 l 0,0 c -8.563,-12.138 -22.877,-17.566 -37.159,-19.204 l 0,0 c -9.017,-1.035 -18.566,-0.97 -27.371,1.41 l 0,0 c -5.936,1.603 -12.524,4.251 -17.707,7.588 l 0,0 c 0,0 0.176,-2.572 1.385,-5.966 l 0,0 c 5.764,-15.106 17.386,-27.172 28.172,-38.842 l 0,0 c 3.309,-3.58 6.713,-7.069 10.327,-10.342 l 0,0 c 6.648,-6.019 19.179,-14.925 28.484,-15.264 l 0,0 c 15.192,-0.552 24.384,11.184 33.244,23.156 l 0,0 c 2.38,3.214 4.48,6.832 6.092,10.498 l 0,0 c 1.853,4.223 3.382,8.566 5.096,12.843 l 0,0 c 6.119,15.261 17.923,39.119 24.291,45.771 l 0,0 c 6.371,6.651 14.348,9.008 14.912,7.743 l 0,0 c -2.495,5.574 -8.354,10.527 -13.862,13.899 l 0,0 c -4.839,2.964 -10.952,4.584 -16.98,4.584 l 0,0 c -3.415,0.001 -6.803,-0.52 -9.916,-1.611" />
            </g>
          </g>
        </g>
      </g>
      <g
         id="g3451"
         style="fill:#ffffff"
         inkscape:export-xdpi="911.28503"
         inkscape:export-ydpi="911.28503">
        <g
           clip-path="url(#clipPath3455)"
           id="g3453"
           style="fill:#ffffff">
          <g
             id="g3459"
             style="fill:#ffffff">
            <g
               id="g3461"
               style="fill:#ffffff" />
            <g
               mask="url(#mask3483)"
               id="g3495"
               style="fill:#ffffff">
              <g
                 id="g3497"
                 style="fill:#ffffff">
                <path
                   inkscape:connector-curvature="0"
                   id="path3515"
                   style="fill:#ffffff;stroke:none"
                   d="m 197.842,478.589 c -16.182,-5.662 -20.096,-23.628 -29.008,-36.263 l 0,0 c -8.563,-12.138 -22.877,-17.566 -37.159,-19.204 l 0,0 c -3.495,-0.4 -7.069,-0.637 -10.649,-0.637 l 0,0 c -5.658,0 -11.329,0.589 -16.722,2.047 l 0,0 c -5.936,1.603 -12.524,4.251 -17.707,7.588 l 0,0 c 0,0 0.176,-2.572 1.385,-5.966 l 0,0 c 5.764,-15.106 17.386,-27.172 28.172,-38.842 l 0,0 c 3.309,-3.58 6.713,-7.069 10.327,-10.342 l 0,0 c 6.648,-6.019 19.179,-14.925 28.484,-15.264 l 0,0 c 0.344,-0.013 0.687,-0.019 1.027,-0.019 l 0,0 c 14.582,0 23.559,11.476 32.217,23.175 l 0,0 c 2.38,3.214 4.48,6.832 6.092,10.498 l 0,0 c 1.853,4.223 3.382,8.566 5.096,12.843 l 0,0 c 6.119,15.261 17.923,39.119 24.291,45.771 l 0,0 c 5.273,5.508 11.652,8.071 14.011,8.071 l 0,0 c 0.49,0 0.805,-0.11 0.901,-0.328 l 0,0 c -2.495,5.574 -8.354,10.527 -13.862,13.899 l 0,0 c -4.837,2.964 -10.953,4.584 -16.98,4.585 l 0,0 c -3.417,0 -6.804,-0.522 -9.916,-1.612 m -66.024,-56.725 c 11.979,1.374 28.303,5.912 38.051,19.732 l 0,0 c 2.668,3.782 4.916,8.07 7.09,12.218 l 0,0 c 5.322,10.156 10.349,19.747 21.302,23.58 l 0,0 c 2.916,1.021 6.111,1.539 9.497,1.539 l 0,0 c 5.807,-10e-4 11.756,-1.603 16.32,-4.398 l 0,0 c 5.541,-3.393 9.908,-7.443 12.319,-11.369 l 0,0 c -3.208,-0.628 -8.836,-3.316 -13.625,-8.316 l 0,0 c -6.692,-6.991 -18.765,-31.739 -24.551,-46.175 l 0,0 c -0.621,-1.55 -1.217,-3.107 -1.815,-4.665 l 0,0 c -1.029,-2.689 -2.093,-5.469 -3.266,-8.14 l 0,0 c -1.568,-3.568 -3.624,-7.114 -5.949,-10.256 l 0,0 c -9.501,-12.839 -17.834,-22.659 -31.199,-22.659 l 0,0 c -0.324,0 -0.65,0.006 -0.981,0.017 l 0,0 c -9.199,0.335 -21.726,9.549 -27.68,14.938 l 0,0 c -3.184,2.884 -6.44,6.145 -10.246,10.263 l 0,0 -1.663,1.797 c -10.264,11.078 -20.875,22.533 -26.246,36.608 l 0,0 c -0.404,1.133 -0.687,2.175 -0.883,3.043 l 0,0 c 4.535,-2.557 10.101,-4.806 15.68,-6.312 l 0,0 c 5.132,-1.387 10.871,-2.091 17.053,-2.091 l 0,0 c 3.431,0 7.062,0.218 10.792,0.646" />
              </g>
            </g>
          </g>
        </g>
      </g>
      <g
         id="g3517"
         style="fill:#444443;fill-opacity:1"
         inkscape:export-xdpi="911.28503"
         inkscape:export-ydpi="911.28503">
        <g
           id="g3519"
           style="fill:#444443;fill-opacity:1">
          <g
             id="g3525"
             style="fill:#444443;fill-opacity:1">
            <g
               id="g3527"
               style="fill:#444443;fill-opacity:1">
              <path
                 inkscape:connector-curvature="0"
                 id="path3541"
                 style="fill:#444443;stroke:none;fill-opacity:1"
                 d="m 86.512,433.88 c 0,-0.637 0.045,-1.264 0.121,-1.88 l 0,0 c 5.184,-3.337 11.772,-5.985 17.708,-7.589 l 0,0 c 8.804,-2.378 18.354,-2.444 27.372,-1.411 l 0,0 c 5.584,0.642 11.17,1.873 16.42,3.847 l 0,0 c -4.335,-1.354 -8.93,-1.934 -13.252,-0.726 l 0,0 c -9.076,2.537 -12.827,11.752 -18.3,18.245 l 0,0 c -0.426,0.506 -0.88,0.978 -1.35,1.426 l 0,0 c -3.045,3.039 -7.249,4.916 -11.888,4.916 l 0,0 c -9.296,0 -16.831,-7.534 -16.831,-16.828" />
            </g>
          </g>
        </g>
      </g>
      <g
         id="g3543"
         style="fill:#ffffff"
         inkscape:export-xdpi="911.28503"
         inkscape:export-ydpi="911.28503">
        <g
           clip-path="url(#clipPath3547)"
           id="g3545"
           style="fill:#ffffff">
          <g
             id="g3551"
             style="fill:#ffffff">
            <g
               id="g3553"
               style="fill:#ffffff" />
            <g
               mask="url(#mask3565)"
               id="g3577"
               style="fill:#ffffff">
              <g
                 id="g3579"
                 style="fill:#ffffff">
                <path
                   inkscape:connector-curvature="0"
                   id="path3587"
                   style="fill:#ffffff;stroke:none"
                   d="m 86.512,433.88 c 0,-0.637 0.045,-1.264 0.121,-1.88 l 0,0 c 5.184,-3.337 11.772,-5.985 17.708,-7.589 l 0,0 c 5.393,-1.458 11.07,-2.046 16.731,-2.046 l 0,0 c 3.576,0 7.147,0.235 10.641,0.635 l 0,0 c 5.584,0.642 11.17,1.873 16.42,3.847 l 0,0 c -2.696,-0.842 -5.49,-1.385 -8.256,-1.385 l 0,0 c -1.684,0 -3.36,0.203 -4.996,0.659 l 0,0 c -9.076,2.537 -12.827,11.752 -18.3,18.245 l 0,0 c -0.426,0.506 -0.88,0.978 -1.35,1.426 l 0,0 c -3.045,3.039 -7.249,4.916 -11.888,4.916 l 0,0 c -9.296,0 -16.831,-7.534 -16.831,-16.828 m 18.158,-8.246 c -6.13,1.657 -12.227,4.234 -16.84,7.109 l 0,0 c -0.034,0.39 -0.05,0.771 -0.05,1.137 l 0,0 c 0,8.581 6.982,15.56 15.563,15.56 l 0,0 c 4.151,0 8.055,-1.613 11.013,-4.565 l 0,0 c 0.474,-0.451 0.884,-0.885 1.255,-1.325 l 0,0 c 1.421,-1.684 2.706,-3.534 4.067,-5.492 l 0,0 c 3.815,-5.494 7.761,-11.174 14.863,-13.156 l 0,0 c 0.192,-0.054 0.382,-0.106 0.578,-0.153 l 0,0 c -1.166,-0.188 -2.349,-0.351 -3.551,-0.49 l 0,0 c -3.631,-0.417 -7.164,-0.628 -10.496,-0.628 l 0,0 c -5.964,0 -11.481,0.675 -16.402,2.003" />
              </g>
            </g>
          </g>
        </g>
      </g>
      <g
         id="g3589"
         style="fill:#444443;fill-opacity:1"
         inkscape:export-xdpi="911.28503"
         inkscape:export-ydpi="911.28503">
        <g
           clip-path="url(#clipPath3593)"
           id="g3591"
           style="fill:#444443;fill-opacity:1">
          <g
             id="g3597"
             style="fill:#444443;fill-opacity:1">
            <g
               id="g3599"
               style="fill:#444443;fill-opacity:1" />
            <g
               id="g3605"
               style="fill:#444443;fill-opacity:1">
              <g
                 style="opacity:0.10000598;fill:#444443;fill-opacity:1"
                 id="g3607"
                 clip-path="url(#clipPath3601)">
                <g
                   id="g3609"
                   transform="translate(238.5039,461.9052)"
                   style="fill:#444443;fill-opacity:1">
                  <path
                     inkscape:connector-curvature="0"
                     id="path3611"
                     style="fill:#444443;fill-opacity:1;fill-rule:nonzero;stroke:none"
                     d="m 0,0 c -0.77,1.14 -8.592,-1.235 -14.869,-7.79 -6.367,-6.65 -18.171,-30.509 -24.29,-45.771 -1.631,-4.067 -2.976,-8.223 -4.71,-12.252 1.299,1.688 2.576,3.317 4.193,4.725 4.983,4.355 10.891,7.766 16.684,11.192 -7.565,6.13 14.375,47.794 24.734,45.704 C 1.279,-2.772 0.703,-1.373 0,0" />
                </g>
              </g>
            </g>
          </g>
          <g
             id="g3613"
             style="fill:#444443;fill-opacity:1">
            <g
               id="g3615"
               style="fill:#444443;fill-opacity:1" />
            <g
               id="g3621"
               style="fill:#444443;fill-opacity:1">
              <g
                 style="opacity:0.10000598;fill:#444443;fill-opacity:1"
                 id="g3623"
                 clip-path="url(#clipPath3617)">
                <g
                   id="g3625"
                   transform="translate(104.3408,424.4111)"
                   style="fill:#444443;fill-opacity:1">
                  <path
                     inkscape:connector-curvature="0"
                     id="path3627"
                     style="fill:#444443;fill-opacity:1;fill-rule:nonzero;stroke:none"
                     d="m 0,0 c 8.805,-2.379 18.354,-2.444 27.372,-1.411 5.584,0.641 11.17,1.873 16.42,3.846 C 39.457,1.082 34.862,0.502 30.54,1.71 26.94,2.717 24.18,4.772 21.817,7.292 16.767,1.095 3.882,0.778 -17.828,9.469 c 0,-0.637 0.044,-1.265 0.12,-1.88 C -12.523,4.252 -5.936,1.603 0,0" />
                </g>
              </g>
            </g>
          </g>
          <g
             id="g3629"
             style="fill:#444443;fill-opacity:1">
            <g
               id="g3631"
               style="fill:#444443;fill-opacity:1" />
            <g
               id="g3637"
               style="fill:#444443;fill-opacity:1">
              <g
                 style="opacity:0.10000598;fill:#444443;fill-opacity:1"
                 id="g3639"
                 clip-path="url(#clipPath3633)">
                <g
                   id="g3641"
                   transform="translate(131.6758,423.122)"
                   style="fill:#444443;fill-opacity:1">
                  <path
                     inkscape:connector-curvature="0"
                     id="path3643"
                     style="fill:#444443;fill-opacity:1;fill-rule:nonzero;stroke:none"
                     d="m 0,0 c -9.018,-1.034 -18.566,-0.97 -27.372,1.41 -5.936,1.603 -12.523,4.251 -17.707,7.588 0,0 0.177,-2.571 1.386,-5.967 5.763,-15.105 17.385,-27.172 28.172,-38.841 C -23.058,-25.022 -18.385,-5.457 0,0" />
                </g>
              </g>
            </g>
          </g>
        </g>
      </g>
      <text
         id="text3645"
         style="font-variant:normal;font-weight:bold;font-stretch:normal;font-size:54.72240067px;font-family:Signika;-inkscape-font-specification:Signika-Bold;writing-mode:lr-tb;fill:#444443;fill-opacity:1;fill-rule:nonzero;stroke:none"
         transform="matrix(1,0,0,-1,266.7378,397.772)"
         inkscape:export-xdpi="911.28503"
         inkscape:export-ydpi="911.28503">
        <tspan
           id="tspan3647"
           sodipodi:role="line"
           x="0"
           y="0">Open</tspan>
      </text>
      <text
         id="text3649"
         style="font-variant:normal;font-weight:300;font-stretch:normal;font-size:54.72240067px;font-family:Signika;-inkscape-font-specification:Signika-Light;writing-mode:lr-tb;fill:#444443;fill-opacity:1;fill-rule:nonzero;stroke:none"
         transform="scale(1,-1)"
         x="423.17166"
         y="-397.772"
         inkscape:export-xdpi="911.28503"
         inkscape:export-ydpi="911.28503">
        <tspan
           id="tspan3651"
           sodipodi:role="line"
           y="-397.772"
           x="423.17166">Health</tspan>
      </text>
      <text
         id="text3653"
         style="font-variant:normal;font-weight:normal;font-stretch:normal;font-size:17px;font-family:DINPro-Regular;-inkscape-font-specification:DINPro-Regular;writing-mode:lr-tb;fill:#444443;fill-opacity:1;fill-rule:nonzero;stroke:none"
         transform="matrix(1,0,0,-1,269.4443,371.1973)"
         inkscape:export-xdpi="911.28503"
         inkscape:export-ydpi="911.28503">
        <tspan
           id="tspan3655"
           sodipodi:role="line"
           x="0"
           y="0">An open source health platform</tspan>
      </text>
    </g>
  </g>
</svg>
